\relax 
\providecommand\hyper@newdestlabel[2]{}
\catcode `:\active 
\catcode `;\active 
\catcode `!\active 
\catcode `?\active 
\providecommand\HyperFirstAtBeginDocument{\AtBeginDocument}
\HyperFirstAtBeginDocument{\ifx\hyper@anchor\@undefined
\global\let\oldcontentsline\contentsline
\gdef\contentsline#1#2#3#4{\oldcontentsline{#1}{#2}{#3}}
\global\let\oldnewlabel\newlabel
\gdef\newlabel#1#2{\newlabelxx{#1}#2}
\gdef\newlabelxx#1#2#3#4#5#6{\oldnewlabel{#1}{{#2}{#3}}}
\AtEndDocument{\ifx\hyper@anchor\@undefined
\let\contentsline\oldcontentsline
\let\newlabel\oldnewlabel
\fi}
\fi}
\global\let\hyper@last\relax 
\gdef\HyperFirstAtBeginDocument#1{#1}
\providecommand\HyField@AuxAddToFields[1]{}
\providecommand\HyField@AuxAddToCoFields[2]{}
\providecommand \oddpage@label [2]{}
\select@language{french}
\@writefile{toc}{\select@language{french}}
\@writefile{lof}{\select@language{french}}
\@writefile{lot}{\select@language{french}}
\@writefile{toc}{\contentsline {chapter}{\numberline {1}Auteurs}{1}{chapter.1}}
\@writefile{lof}{\addvspace {10\p@ }}
\@writefile{lot}{\addvspace {10\p@ }}
\newlabel{md_AUTHORS}{{1}{1}{Auteurs}{chapter.1}{}}
\@writefile{toc}{\contentsline {chapter}{\numberline {2}Comment contribuer ?}{3}{chapter.2}}
\@writefile{lof}{\addvspace {10\p@ }}
\@writefile{lot}{\addvspace {10\p@ }}
\newlabel{md_CONTRIBUTING}{{2}{3}{Comment contribuer ?}{chapter.2}{}}
\gdef \LT@i {\LT@entry 
    {1}{79.5515pt}\LT@entry 
    {1}{130.8554pt}\LT@entry 
    {1}{101.33627pt}}
\@writefile{toc}{\contentsline {chapter}{\numberline {3}Pr\IeC {\'e}sentation du projet}{5}{chapter.3}}
\@writefile{lof}{\addvspace {10\p@ }}
\@writefile{lot}{\addvspace {10\p@ }}
\newlabel{md_README}{{3}{5}{Présentation du projet}{chapter.3}{}}
\@writefile{toc}{\contentsline {chapter}{\numberline {4}Index des fichiers}{7}{chapter.4}}
\@writefile{lof}{\addvspace {10\p@ }}
\@writefile{lot}{\addvspace {10\p@ }}
\@writefile{toc}{\contentsline {section}{\numberline {4.1}Liste des fichiers}{7}{section.4.1}}
\@writefile{toc}{\contentsline {chapter}{\numberline {5}Documentation des fichiers}{9}{chapter.5}}
\@writefile{lof}{\addvspace {10\p@ }}
\@writefile{lot}{\addvspace {10\p@ }}
\@writefile{toc}{\contentsline {section}{\numberline {5.1}R\IeC {\'e}f\IeC {\'e}rence du fichier 404.php}{9}{section.5.1}}
\newlabel{404_8php}{{5.1}{9}{Référence du fichier 404.php}{section.5.1}{}}
\newlabel{404_8php_ada57e7bb7c152edad18fe2f166188691}{{5.1}{9}{Variables}{section*.21}{}}
\newlabel{404_8php_aac3430cb9e46a0a966f9e52fb5b0f2e5}{{5.1}{9}{Variables}{section*.21}{}}
\newlabel{404_8php_abd32cc82c6a3f79491987de36ad580ca}{{5.1}{9}{Variables}{section*.21}{}}
\@writefile{toc}{\contentsline {subsection}{\numberline {5.1.1}Description d\IeC {\'e}taill\IeC {\'e}e}{9}{subsection.5.1.1}}
\@writefile{toc}{\contentsline {section}{\numberline {5.2}R\IeC {\'e}f\IeC {\'e}rence du fichier barre\discretionary {\unhbox \voidb@x \hbox {\relax \fontsize  {7}{8}\selectfont  $\leftarrow \joinrel  \rhook $}}{}{}\_\discretionary {\unhbox \voidb@x \hbox {\relax \fontsize  {7}{8}\selectfont  $\leftarrow \joinrel  \rhook $}}{}{}logo.\discretionary {\unhbox \voidb@x \hbox {\relax \fontsize  {7}{8}\selectfont  $\leftarrow \joinrel  \rhook $}}{}{}php}{9}{section.5.2}}
\newlabel{barre__logo_8php}{{5.2}{9}{Référence du fichier barre\+\_\+logo.\+php}{section.5.2}{}}
\newlabel{barre__logo_8php_a855cc2a8c4540241782d023cf90a3eb5}{{5.2}{9}{Fonctions}{section*.22}{}}
\@writefile{toc}{\contentsline {subsection}{\numberline {5.2.1}Description d\IeC {\'e}taill\IeC {\'e}e}{10}{subsection.5.2.1}}
\@writefile{toc}{\contentsline {section}{\numberline {5.3}R\IeC {\'e}f\IeC {\'e}rence du fichier incompatible.\discretionary {\unhbox \voidb@x \hbox {\relax \fontsize  {7}{8}\selectfont  $\leftarrow \joinrel  \rhook $}}{}{}php}{10}{section.5.3}}
\newlabel{incompatible_8php}{{5.3}{10}{Référence du fichier incompatible.\+php}{section.5.3}{}}
\@writefile{toc}{\contentsline {subsection}{\numberline {5.3.1}Description d\IeC {\'e}taill\IeC {\'e}e}{10}{subsection.5.3.1}}
\@writefile{toc}{\contentsline {section}{\numberline {5.4}R\IeC {\'e}f\IeC {\'e}rence du fichier projet/fabrique.php}{10}{section.5.4}}
\newlabel{fabrique_8php}{{5.4}{10}{Référence du fichier projet/fabrique.php}{section.5.4}{}}
\newlabel{fabrique_8php_ada57e7bb7c152edad18fe2f166188691}{{5.4}{10}{Variables}{section*.23}{}}
\newlabel{fabrique_8php_abd32cc82c6a3f79491987de36ad580ca}{{5.4}{10}{Variables}{section*.23}{}}
\@writefile{toc}{\contentsline {subsection}{\numberline {5.4.1}Description d\IeC {\'e}taill\IeC {\'e}e}{10}{subsection.5.4.1}}
\@writefile{toc}{\contentsline {section}{\numberline {5.5}R\IeC {\'e}f\IeC {\'e}rence du fichier retour.\discretionary {\unhbox \voidb@x \hbox {\relax \fontsize  {7}{8}\selectfont  $\leftarrow \joinrel  \rhook $}}{}{}php}{11}{section.5.5}}
\newlabel{retour_8php}{{5.5}{11}{Référence du fichier retour.\+php}{section.5.5}{}}
\newlabel{retour_8php_a80e2faad0dc7ff1bfd58d8b38eee1872}{{5.5}{11}{Variables}{section*.24}{}}
\@writefile{toc}{\contentsline {subsection}{\numberline {5.5.1}Description d\IeC {\'e}taill\IeC {\'e}e}{11}{subsection.5.5.1}}
\@writefile{toc}{\contentsline {chapter}{Index}{13}{section*.25}}
