\select@language {french}
\contentsline {chapter}{\numberline {1}Auteurs}{1}{chapter.1}
\contentsline {chapter}{\numberline {2}Comment contribuer ?}{3}{chapter.2}
\contentsline {chapter}{\numberline {3}Pr\IeC {\'e}sentation du projet}{5}{chapter.3}
\contentsline {chapter}{\numberline {4}Index des fichiers}{7}{chapter.4}
\contentsline {section}{\numberline {4.1}Liste des fichiers}{7}{section.4.1}
\contentsline {chapter}{\numberline {5}Documentation des fichiers}{9}{chapter.5}
\contentsline {section}{\numberline {5.1}R\IeC {\'e}f\IeC {\'e}rence du fichier 404.php}{9}{section.5.1}
\contentsline {subsection}{\numberline {5.1.1}Description d\IeC {\'e}taill\IeC {\'e}e}{9}{subsection.5.1.1}
\contentsline {section}{\numberline {5.2}R\IeC {\'e}f\IeC {\'e}rence du fichier barre\discretionary {\unhbox \voidb@x \hbox {\relax \fontsize {7}{8}\selectfont $\leftarrow \joinrel \rhook $}}{}{}\_\discretionary {\unhbox \voidb@x \hbox {\relax \fontsize {7}{8}\selectfont $\leftarrow \joinrel \rhook $}}{}{}logo.\discretionary {\unhbox \voidb@x \hbox {\relax \fontsize {7}{8}\selectfont $\leftarrow \joinrel \rhook $}}{}{}php}{9}{section.5.2}
\contentsline {subsection}{\numberline {5.2.1}Description d\IeC {\'e}taill\IeC {\'e}e}{10}{subsection.5.2.1}
\contentsline {section}{\numberline {5.3}R\IeC {\'e}f\IeC {\'e}rence du fichier incompatible.\discretionary {\unhbox \voidb@x \hbox {\relax \fontsize {7}{8}\selectfont $\leftarrow \joinrel \rhook $}}{}{}php}{10}{section.5.3}
\contentsline {subsection}{\numberline {5.3.1}Description d\IeC {\'e}taill\IeC {\'e}e}{10}{subsection.5.3.1}
\contentsline {section}{\numberline {5.4}R\IeC {\'e}f\IeC {\'e}rence du fichier projet/fabrique.php}{10}{section.5.4}
\contentsline {subsection}{\numberline {5.4.1}Description d\IeC {\'e}taill\IeC {\'e}e}{10}{subsection.5.4.1}
\contentsline {section}{\numberline {5.5}R\IeC {\'e}f\IeC {\'e}rence du fichier retour.\discretionary {\unhbox \voidb@x \hbox {\relax \fontsize {7}{8}\selectfont $\leftarrow \joinrel \rhook $}}{}{}php}{11}{section.5.5}
\contentsline {subsection}{\numberline {5.5.1}Description d\IeC {\'e}taill\IeC {\'e}e}{11}{subsection.5.5.1}
\contentsline {chapter}{Index}{13}{section*.25}
